RISC-V_PROJECT.sim/sim_1/behav/xsim/simulate.log
Vivado Simulator 2019.1
Time resolution is 1 ps
WARNING: File reg_init.mem referenced on C:/Users/yashw/RISC-V_PROJECT.srcs/sources_1/new/reg_file.sv at line 27 cannot be opened for reading. Please ensure that this file is available in the current working directory.
==== RISC-V Top Module Testbench Started ====
Time: 10000 | PC=0x00000000 | Inst=0x00500093 | rs1=x0=0x00000000 | rs2=x5=0xxxxxxxxx | rd=x1 | alu_op=0000 | alu_result=0x00000005 | MemRW=0 | RegWrite=1 | MemOut=0x00000000
Time: 20000 | PC=0x00000004 | Inst=0x00a00113 | rs1=x0=0x00000000 | rs2=x10=0xxxxxxxxx | rd=x2 | alu_op=0000 | alu_result=0x0000000a | MemRW=0 | RegWrite=1 | MemOut=0x00000000
Time: 30000 | PC=0x00000008 | Inst=0x00f00193 | rs1=x0=0x00000000 | rs2=x15=0xxxxxxxxx | rd=x3 | alu_op=0000 | alu_result=0x0000000f | MemRW=0 | RegWrite=1 | MemOut=0x00000000
Time: 40000 | PC=0x0000000c | Inst=0x0ff00213 | rs1=x0=0x00000000 | rs2=x31=0xxxxxxxxx | rd=x4 | alu_op=0000 | alu_result=0x000000ff | MemRW=0 | RegWrite=1 | MemOut=0x00000000
Time: 50000 | PC=0x00000010 | Inst=0x123452b7 | rs1=x8=0xxxxxxxxx | rs2=x3=0x0000000f | rd=x5 | alu_op=0000 | alu_result=0xxxxxxxxx | MemRW=0 | RegWrite=1 | MemOut=0x00000000
Time: 60000 | PC=0x00000014 | Inst=0x00208333 | rs1=x1=0x00000005 | rs2=x2=0x0000000a | rd=x6 | alu_op=0000 | alu_result=0x0000000f | MemRW=0 | RegWrite=1 | MemOut=0x00000000
Time: 70000 | PC=0x00000018 | Inst=0x401183b3 | rs1=x3=0x0000000f | rs2=x1=0x00000005 | rd=x7 | alu_op=0001 | alu_result=0x0000000a | MemRW=0 | RegWrite=1 | MemOut=0x00000000
Time: 80000 | PC=0x0000001c | Inst=0x00009433 | rs1=x1=0x00000005 | rs2=x0=0x00000000 | rd=x8 | alu_op=0010 | alu_result=0x00000005 | MemRW=0 | RegWrite=1 | MemOut=0x000000a3
Time: 90000 | PC=0x00000020 | Inst=0x0030a4b3 | rs1=x1=0x00000005 | rs2=x3=0x0000000f | rd=x9 | alu_op=0011 | alu_result=0x00000001 | MemRW=0 | RegWrite=1 | MemOut=0x00000001
Time: 100000 | PC=0x00000024 | Inst=0x0002b533 | rs1=x5=0xxxxxxxxx | rs2=x0=0x00000000 | rd=x10 | alu_op=0100 | alu_result=0x0000000X | MemRW=0 | RegWrite=1 | MemOut=0x00000000
Time: 110000 | PC=0x00000028 | Inst=0x0020c5b3 | rs1=x1=0x00000005 | rs2=x2=0x0000000a | rd=x11 | alu_op=0101 | alu_result=0x0000000f | MemRW=0 | RegWrite=1 | MemOut=0x00000000
Time: 120000 | PC=0x0000002c | Inst=0x00025633 | rs1=x4=0x000000ff | rs2=x0=0x00000000 | rd=x12 | alu_op=0110 | alu_result=0x000000ff | MemRW=0 | RegWrite=1 | MemOut=0x00000000
Time: 130000 | PC=0x00000030 | Inst=0x0020e733 | rs1=x1=0x00000005 | rs2=x2=0x0000000a | rd=x14 | alu_op=1000 | alu_result=0x0000000f | MemRW=0 | RegWrite=1 | MemOut=0x00000000
Time: 140000 | PC=0x00000034 | Inst=0x0020f7b3 | rs1=x1=0x00000005 | rs2=x2=0x0000000a | rd=x15 | alu_op=1001 | alu_result=0x00000000 | MemRW=0 | RegWrite=1 | MemOut=0x00000000
Time: 150000 | PC=0x00000038 | Inst=0x00a0a813 | rs1=x1=0x00000005 | rs2=x10=0x0000000X | rd=x16 | alu_op=0011 | alu_result=0x00000001 | MemRW=0 | RegWrite=1 | MemOut=0x00000001
Time: 160000 | PC=0x0000003c | Inst=0x00a0b893 | rs1=x1=0x00000005 | rs2=x10=0x0000000X | rd=x17 | alu_op=0100 | alu_result=0x00000001 | MemRW=0 | RegWrite=1 | MemOut=0x00000000
Time: 170000 | PC=0x00000040 | Inst=0x0010c913 | rs1=x1=0x00000005 | rs2=x1=0x00000005 | rd=x18 | alu_op=0101 | alu_result=0x00000004 | MemRW=0 | RegWrite=1 | MemOut=0x000000a3
Time: 180000 | PC=0x00000044 | Inst=0x0020e993 | rs1=x1=0x00000005 | rs2=x2=0x0000000a | rd=x19 | alu_op=1000 | alu_result=0x00000007 | MemRW=0 | RegWrite=1 | MemOut=0x00000000
Time: 190000 | PC=0x00000048 | Inst=0x0070fa13 | rs1=x1=0x00000005 | rs2=x7=0x0000000a | rd=x20 | alu_op=1001 | alu_result=0x00000005 | MemRW=0 | RegWrite=1 | MemOut=0x00000000
Time: 200000 | PC=0x0000004c | Inst=0x00109a93 | rs1=x1=0x00000005 | rs2=x1=0x00000005 | rd=x21 | alu_op=1111 | alu_result=0x00000000 | MemRW=0 | RegWrite=1 | MemOut=0x00000001
Time: 210000 | PC=0x00000050 | Inst=0x00125b13 | rs1=x4=0x000000ff | rs2=x1=0x00000005 | rd=x22 | alu_op=0110 | alu_result=0x0000007f | MemRW=0 | RegWrite=1 | MemOut=0x00000000
Time: 220000 | PC=0x00000054 | Inst=0x06400f93 | rs1=x0=0x00000000 | rs2=x4=0x000000ff | rd=x31 | alu_op=0000 | alu_result=0x00000064 | MemRW=0 | RegWrite=1 | MemOut=0xffffffad
Time: 230000 | PC=0x00000058 | Inst=0x006fa023 | rs1=x31=0x00000064 | rs2=x6=0x0000000f | rd=x0 | alu_op=0000 | alu_result=0x00000064 | MemRW=1 | RegWrite=0 | MemOut=0x00000bad
Time: 240000 | PC=0x0000005c | Inst=0x007f9223 | rs1=x31=0x00000064 | rs2=x7=0x0000000a | rd=x4 | alu_op=0000 | alu_result=0x00000068 | MemRW=1 | RegWrite=0 | MemOut=0x00000321
Time: 250000 | PC=0x00000060 | Inst=0x008f8423 | rs1=x31=0x00000064 | rs2=x8=0x00000005 | rd=x8 | alu_op=0000 | alu_result=0x0000006c | MemRW=1 | RegWrite=0 | MemOut=0x00000014
Time: 260000 | PC=0x00000064 | Inst=0x000fac03 | rs1=x31=0x00000064 | rs2=x0=0x00000000 | rd=x24 | alu_op=0000 | alu_result=0x00000064 | MemRW=0 | RegWrite=1 | MemOut=0x0000000f
Time: 270000 | PC=0x00000068 | Inst=0x004f9c83 | rs1=x31=0x00000064 | rs2=x4=0x000000ff | rd=x25 | alu_op=0000 | alu_result=0x00000068 | MemRW=0 | RegWrite=1 | MemOut=0x0000000a
Time: 280000 | PC=0x0000006c | Inst=0x004fdd03 | rs1=x31=0x00000064 | rs2=x4=0x000000ff | rd=x26 | alu_op=0000 | alu_result=0x00000068 | MemRW=0 | RegWrite=1 | MemOut=0x0000000a
Time: 290000 | PC=0x00000070 | Inst=0x008f8d83 | rs1=x31=0x00000064 | rs2=x8=0x00000005 | rd=x27 | alu_op=0000 | alu_result=0x0000006c | MemRW=0 | RegWrite=1 | MemOut=0x00000005
Time: 300000 | PC=0x00000074 | Inst=0x008fce03 | rs1=x31=0x00000064 | rs2=x8=0x00000005 | rd=x28 | alu_op=0000 | alu_result=0x0000006c | MemRW=0 | RegWrite=1 | MemOut=0x00000005
Time: 310000 | PC=0x00000078 | Inst=0x00108463 | rs1=x1=0x00000005 | rs2=x1=0x00000005 | rd=x8 | alu_op=0000 | alu_result=0x0000000a | MemRW=0 | RegWrite=0 | MemOut=0x00000000
Time: 320000 | PC=0x00000080 | Inst=0x00209463 | rs1=x1=0x00000005 | rs2=x2=0x0000000a | rd=x8 | alu_op=0000 | alu_result=0x0000000f | MemRW=0 | RegWrite=0 | MemOut=0x00000000
Time: 330000 | PC=0x00000088 | Inst=0x0020c463 | rs1=x1=0x00000005 | rs2=x2=0x0000000a | rd=x8 | alu_op=0000 | alu_result=0x0000000f | MemRW=0 | RegWrite=0 | MemOut=0x00000000
Time: 340000 | PC=0x00000090 | Inst=0x00115463 | rs1=x2=0x0000000a | rs2=x1=0x00000005 | rd=x8 | alu_op=0000 | alu_result=0x0000000f | MemRW=0 | RegWrite=0 | MemOut=0x00000000
Time: 350000 | PC=0x00000098 | Inst=0x0020e463 | rs1=x1=0x00000005 | rs2=x2=0x0000000a | rd=x8 | alu_op=0000 | alu_result=0x0000000f | MemRW=0 | RegWrite=0 | MemOut=0x00000000
Time: 360000 | PC=0x000000a0 | Inst=0x00117463 | rs1=x2=0x0000000a | rs2=x1=0x00000005 | rd=x8 | alu_op=0000 | alu_result=0x0000000f | MemRW=0 | RegWrite=0 | MemOut=0x00000000
Time: 370000 | PC=0x000000a8 | Inst=0x0080056f | rs1=x0=0x00000000 | rs2=x8=0x00000005 | rd=x10 | alu_op=0000 | alu_result=0x000000ad | MemRW=0 | RegWrite=1 | MemOut=0x00000000
Time: 380000 | PC=0x000000b0 | Inst=0x04000613 | rs1=x0=0x00000000 | rs2=x0=0x00000000 | rd=x12 | alu_op=0000 | alu_result=0x00000040 | MemRW=0 | RegWrite=1 | MemOut=0x00000029
Time: 390000 | PC=0x000000b4 | Inst=0x000606e7 | rs1=x12=0x00000040 | rs2=x0=0x00000000 | rd=x13 | alu_op=0000 | alu_result=0x00000040 | MemRW=0 | RegWrite=1 | MemOut=0x00000029
Time: 400000 | PC=0x00000040 | Inst=0x0010c913 | rs1=x1=0x00000005 | rs2=x1=0x00000005 | rd=x18 | alu_op=0101 | alu_result=0x00000004 | MemRW=0 | RegWrite=1 | MemOut=0x000000a3
Time: 410000 | PC=0x00000044 | Inst=0x0020e993 | rs1=x1=0x00000005 | rs2=x2=0x0000000a | rd=x19 | alu_op=1000 | alu_result=0x00000007 | MemRW=0 | RegWrite=1 | MemOut=0x00000000
Time: 420000 | PC=0x00000048 | Inst=0x0070fa13 | rs1=x1=0x00000005 | rs2=x7=0x0000000a | rd=x20 | alu_op=1001 | alu_result=0x00000005 | MemRW=0 | RegWrite=1 | MemOut=0x00000000
Time: 430000 | PC=0x0000004c | Inst=0x00109a93 | rs1=x1=0x00000005 | rs2=x1=0x00000005 | rd=x21 | alu_op=1111 | alu_result=0x00000000 | MemRW=0 | RegWrite=1 | MemOut=0x00000001
Time: 440000 | PC=0x00000050 | Inst=0x00125b13 | rs1=x4=0x000000ff | rs2=x1=0x00000005 | rd=x22 | alu_op=0110 | alu_result=0x0000007f | MemRW=0 | RegWrite=1 | MemOut=0x00000000
Time: 450000 | PC=0x00000054 | Inst=0x06400f93 | rs1=x0=0x00000000 | rs2=x4=0x000000ff | rd=x31 | alu_op=0000 | alu_result=0x00000064 | MemRW=0 | RegWrite=1 | MemOut=0x0000000f
Time: 460000 | PC=0x00000058 | Inst=0x006fa023 | rs1=x31=0x00000064 | rs2=x6=0x0000000f | rd=x0 | alu_op=0000 | alu_result=0x00000064 | MemRW=1 | RegWrite=0 | MemOut=0x0000000f
Time: 470000 | PC=0x0000005c | Inst=0x007f9223 | rs1=x31=0x00000064 | rs2=x7=0x0000000a | rd=x4 | alu_op=0000 | alu_result=0x00000068 | MemRW=1 | RegWrite=0 | MemOut=0x0000000a
Time: 480000 | PC=0x00000060 | Inst=0x008f8423 | rs1=x31=0x00000064 | rs2=x8=0x00000005 | rd=x8 | alu_op=0000 | alu_result=0x0000006c | MemRW=1 | RegWrite=0 | MemOut=0x00000005
Time: 490000 | PC=0x00000064 | Inst=0x000fac03 | rs1=x31=0x00000064 | rs2=x0=0x00000000 | rd=x24 | alu_op=0000 | alu_result=0x00000064 | MemRW=0 | RegWrite=1 | MemOut=0x0000000f
Time: 500000 | PC=0x00000068 | Inst=0x004f9c83 | rs1=x31=0x00000064 | rs2=x4=0x000000ff | rd=x25 | alu_op=0000 | alu_result=0x00000068 | MemRW=0 | RegWrite=1 | MemOut=0x0000000a
Time: 510000 | PC=0x0000006c | Inst=0x004fdd03 | rs1=x31=0x00000064 | rs2=x4=0x000000ff | rd=x26 | alu_op=0000 | alu_result=0x00000068 | MemRW=0 | RegWrite=1 | MemOut=0x0000000a
Time: 520000 | PC=0x00000070 | Inst=0x008f8d83 | rs1=x31=0x00000064 | rs2=x8=0x00000005 | rd=x27 | alu_op=0000 | alu_result=0x0000006c | MemRW=0 | RegWrite=1 | MemOut=0x00000005
Time: 530000 | PC=0x00000074 | Inst=0x008fce03 | rs1=x31=0x00000064 | rs2=x8=0x00000005 | rd=x28 | alu_op=0000 | alu_result=0x0000006c | MemRW=0 | RegWrite=1 | MemOut=0x00000005
Time: 540000 | PC=0x00000078 | Inst=0x00108463 | rs1=x1=0x00000005 | rs2=x1=0x00000005 | rd=x8 | alu_op=0000 | alu_result=0x0000000a | MemRW=0 | RegWrite=0 | MemOut=0x00000000
Time: 550000 | PC=0x00000080 | Inst=0x00209463 | rs1=x1=0x00000005 | rs2=x2=0x0000000a | rd=x8 | alu_op=0000 | alu_result=0x0000000f | MemRW=0 | RegWrite=0 | MemOut=0x00000000
Time: 560000 | PC=0x00000088 | Inst=0x0020c463 | rs1=x1=0x00000005 | rs2=x2=0x0000000a | rd=x8 | alu_op=0000 | alu_result=0x0000000f | MemRW=0 | RegWrite=0 | MemOut=0x00000000
Time: 570000 | PC=0x00000090 | Inst=0x00115463 | rs1=x2=0x0000000a | rs2=x1=0x00000005 | rd=x8 | alu_op=0000 | alu_result=0x0000000f | MemRW=0 | RegWrite=0 | MemOut=0x00000000
Time: 580000 | PC=0x00000098 | Inst=0x0020e463 | rs1=x1=0x00000005 | rs2=x2=0x0000000a | rd=x8 | alu_op=0000 | alu_result=0x0000000f | MemRW=0 | RegWrite=0 | MemOut=0x00000000
Time: 590000 | PC=0x000000a0 | Inst=0x00117463 | rs1=x2=0x0000000a | rs2=x1=0x00000005 | rd=x8 | alu_op=0000 | alu_result=0x0000000f | MemRW=0 | RegWrite=0 | MemOut=0x00000000
Time: 600000 | PC=0x000000a8 | Inst=0x0080056f | rs1=x0=0x00000000 | rs2=x8=0x00000005 | rd=x10 | alu_op=0000 | alu_result=0x000000ad | MemRW=0 | RegWrite=1 | MemOut=0x00000000
Time: 610000 | PC=0x000000b0 | Inst=0x04000613 | rs1=x0=0x00000000 | rs2=x0=0x00000000 | rd=x12 | alu_op=0000 | alu_result=0x00000040 | MemRW=0 | RegWrite=1 | MemOut=0x00000029
Time: 620000 | PC=0x000000b4 | Inst=0x000606e7 | rs1=x12=0x00000040 | rs2=x0=0x00000000 | rd=x13 | alu_op=0000 | alu_result=0x00000040 | MemRW=0 | RegWrite=1 | MemOut=0x00000029
Time: 630000 | PC=0x00000040 | Inst=0x0010c913 | rs1=x1=0x00000005 | rs2=x1=0x00000005 | rd=x18 | alu_op=0101 | alu_result=0x00000004 | MemRW=0 | RegWrite=1 | MemOut=0x000000a3
Time: 640000 | PC=0x00000044 | Inst=0x0020e993 | rs1=x1=0x00000005 | rs2=x2=0x0000000a | rd=x19 | alu_op=1000 | alu_result=0x00000007 | MemRW=0 | RegWrite=1 | MemOut=0x00000000
Time: 650000 | PC=0x00000048 | Inst=0x0070fa13 | rs1=x1=0x00000005 | rs2=x7=0x0000000a | rd=x20 | alu_op=1001 | alu_result=0x00000005 | MemRW=0 | RegWrite=1 | MemOut=0x00000000
Time: 660000 | PC=0x0000004c | Inst=0x00109a93 | rs1=x1=0x00000005 | rs2=x1=0x00000005 | rd=x21 | alu_op=1111 | alu_result=0x00000000 | MemRW=0 | RegWrite=1 | MemOut=0x00000001
Time: 670000 | PC=0x00000050 | Inst=0x00125b13 | rs1=x4=0x000000ff | rs2=x1=0x00000005 | rd=x22 | alu_op=0110 | alu_result=0x0000007f | MemRW=0 | RegWrite=1 | MemOut=0x00000000
Time: 680000 | PC=0x00000054 | Inst=0x06400f93 | rs1=x0=0x00000000 | rs2=x4=0x000000ff | rd=x31 | alu_op=0000 | alu_result=0x00000064 | MemRW=0 | RegWrite=1 | MemOut=0x0000000f
Time: 690000 | PC=0x00000058 | Inst=0x006fa023 | rs1=x31=0x00000064 | rs2=x6=0x0000000f | rd=x0 | alu_op=0000 | alu_result=0x00000064 | MemRW=1 | RegWrite=0 | MemOut=0x0000000f
Time: 700000 | PC=0x0000005c | Inst=0x007f9223 | rs1=x31=0x00000064 | rs2=x7=0x0000000a | rd=x4 | alu_op=0000 | alu_result=0x00000068 | MemRW=1 | RegWrite=0 | MemOut=0x0000000a
Time: 710000 | PC=0x00000060 | Inst=0x008f8423 | rs1=x31=0x00000064 | rs2=x8=0x00000005 | rd=x8 | alu_op=0000 | alu_result=0x0000006c | MemRW=1 | RegWrite=0 | MemOut=0x00000005
Time: 720000 | PC=0x00000064 | Inst=0x000fac03 | rs1=x31=0x00000064 | rs2=x0=0x00000000 | rd=x24 | alu_op=0000 | alu_result=0x00000064 | MemRW=0 | RegWrite=1 | MemOut=0x0000000f
Time: 730000 | PC=0x00000068 | Inst=0x004f9c83 | rs1=x31=0x00000064 | rs2=x4=0x000000ff | rd=x25 | alu_op=0000 | alu_result=0x00000068 | MemRW=0 | RegWrite=1 | MemOut=0x0000000a
Time: 740000 | PC=0x0000006c | Inst=0x004fdd03 | rs1=x31=0x00000064 | rs2=x4=0x000000ff | rd=x26 | alu_op=0000 | alu_result=0x00000068 | MemRW=0 | RegWrite=1 | MemOut=0x0000000a
Time: 750000 | PC=0x00000070 | Inst=0x008f8d83 | rs1=x31=0x00000064 | rs2=x8=0x00000005 | rd=x27 | alu_op=0000 | alu_result=0x0000006c | MemRW=0 | RegWrite=1 | MemOut=0x00000005
Time: 760000 | PC=0x00000074 | Inst=0x008fce03 | rs1=x31=0x00000064 | rs2=x8=0x00000005 | rd=x28 | alu_op=0000 | alu_result=0x0000006c | MemRW=0 | RegWrite=1 | MemOut=0x00000005
Time: 770000 | PC=0x00000078 | Inst=0x00108463 | rs1=x1=0x00000005 | rs2=x1=0x00000005 | rd=x8 | alu_op=0000 | alu_result=0x0000000a | MemRW=0 | RegWrite=0 | MemOut=0x00000000
Time: 780000 | PC=0x00000080 | Inst=0x00209463 | rs1=x1=0x00000005 | rs2=x2=0x0000000a | rd=x8 | alu_op=0000 | alu_result=0x0000000f | MemRW=0 | RegWrite=0 | MemOut=0x00000000
Time: 790000 | PC=0x00000088 | Inst=0x0020c463 | rs1=x1=0x00000005 | rs2=x2=0x0000000a | rd=x8 | alu_op=0000 | alu_result=0x0000000f | MemRW=0 | RegWrite=0 | MemOut=0x00000000
Time: 800000 | PC=0x00000090 | Inst=0x00115463 | rs1=x2=0x0000000a | rs2=x1=0x00000005 | rd=x8 | alu_op=0000 | alu_result=0x0000000f | MemRW=0 | RegWrite=0 | MemOut=0x00000000
Time: 810000 | PC=0x00000098 | Inst=0x0020e463 | rs1=x1=0x00000005 | rs2=x2=0x0000000a | rd=x8 | alu_op=0000 | alu_result=0x0000000f | MemRW=0 | RegWrite=0 | MemOut=0x00000000
Time: 820000 | PC=0x000000a0 | Inst=0x00117463 | rs1=x2=0x0000000a | rs2=x1=0x00000005 | rd=x8 | alu_op=0000 | alu_result=0x0000000f | MemRW=0 | RegWrite=0 | MemOut=0x00000000
Time: 830000 | PC=0x000000a8 | Inst=0x0080056f | rs1=x0=0x00000000 | rs2=x8=0x00000005 | rd=x10 | alu_op=0000 | alu_result=0x000000ad | MemRW=0 | RegWrite=1 | MemOut=0x00000000
Time: 840000 | PC=0x000000b0 | Inst=0x04000613 | rs1=x0=0x00000000 | rs2=x0=0x00000000 | rd=x12 | alu_op=0000 | alu_result=0x00000040 | MemRW=0 | RegWrite=1 | MemOut=0x00000029
Time: 850000 | PC=0x000000b4 | Inst=0x000606e7 | rs1=x12=0x00000040 | rs2=x0=0x00000000 | rd=x13 | alu_op=0000 | alu_result=0x00000040 | MemRW=0 | RegWrite=1 | MemOut=0x00000029
Time: 860000 | PC=0x00000040 | Inst=0x0010c913 | rs1=x1=0x00000005 | rs2=x1=0x00000005 | rd=x18 | alu_op=0101 | alu_result=0x00000004 | MemRW=0 | RegWrite=1 | MemOut=0x000000a3
Time: 870000 | PC=0x00000044 | Inst=0x0020e993 | rs1=x1=0x00000005 | rs2=x2=0x0000000a | rd=x19 | alu_op=1000 | alu_result=0x00000007 | MemRW=0 | RegWrite=1 | MemOut=0x00000000
Time: 880000 | PC=0x00000048 | Inst=0x0070fa13 | rs1=x1=0x00000005 | rs2=x7=0x0000000a | rd=x20 | alu_op=1001 | alu_result=0x00000005 | MemRW=0 | RegWrite=1 | MemOut=0x00000000
Time: 890000 | PC=0x0000004c | Inst=0x00109a93 | rs1=x1=0x00000005 | rs2=x1=0x00000005 | rd=x21 | alu_op=1111 | alu_result=0x00000000 | MemRW=0 | RegWrite=1 | MemOut=0x00000001
Time: 900000 | PC=0x00000050 | Inst=0x00125b13 | rs1=x4=0x000000ff | rs2=x1=0x00000005 | rd=x22 | alu_op=0110 | alu_result=0x0000007f | MemRW=0 | RegWrite=1 | MemOut=0x00000000
Time: 910000 | PC=0x00000054 | Inst=0x06400f93 | rs1=x0=0x00000000 | rs2=x4=0x000000ff | rd=x31 | alu_op=0000 | alu_result=0x00000064 | MemRW=0 | RegWrite=1 | MemOut=0x0000000f
Time: 920000 | PC=0x00000058 | Inst=0x006fa023 | rs1=x31=0x00000064 | rs2=x6=0x0000000f | rd=x0 | alu_op=0000 | alu_result=0x00000064 | MemRW=1 | RegWrite=0 | MemOut=0x0000000f
Time: 930000 | PC=0x0000005c | Inst=0x007f9223 | rs1=x31=0x00000064 | rs2=x7=0x0000000a | rd=x4 | alu_op=0000 | alu_result=0x00000068 | MemRW=1 | RegWrite=0 | MemOut=0x0000000a
Time: 940000 | PC=0x00000060 | Inst=0x008f8423 | rs1=x31=0x00000064 | rs2=x8=0x00000005 | rd=x8 | alu_op=0000 | alu_result=0x0000006c | MemRW=1 | RegWrite=0 | MemOut=0x00000005
Time: 950000 | PC=0x00000064 | Inst=0x000fac03 | rs1=x31=0x00000064 | rs2=x0=0x00000000 | rd=x24 | alu_op=0000 | alu_result=0x00000064 | MemRW=0 | RegWrite=1 | MemOut=0x0000000f
Time: 960000 | PC=0x00000068 | Inst=0x004f9c83 | rs1=x31=0x00000064 | rs2=x4=0x000000ff | rd=x25 | alu_op=0000 | alu_result=0x00000068 | MemRW=0 | RegWrite=1 | MemOut=0x0000000a
Time: 970000 | PC=0x0000006c | Inst=0x004fdd03 | rs1=x31=0x00000064 | rs2=x4=0x000000ff | rd=x26 | alu_op=0000 | alu_result=0x00000068 | MemRW=0 | RegWrite=1 | MemOut=0x0000000a
Time: 980000 | PC=0x00000070 | Inst=0x008f8d83 | rs1=x31=0x00000064 | rs2=x8=0x00000005 | rd=x27 | alu_op=0000 | alu_result=0x0000006c | MemRW=0 | RegWrite=1 | MemOut=0x00000005
Time: 990000 | PC=0x00000074 | Inst=0x008fce03 | rs1=x31=0x00000064 | rs2=x8=0x00000005 | rd=x28 | alu_op=0000 | alu_result=0x0000006c | MemRW=0 | RegWrite=1 | MemOut=0x00000005
Time: 1000000 | PC=0x00000078 | Inst=0x00108463 | rs1=x1=0x00000005 | rs2=x1=0x00000005 | rd=x8 | alu_op=0000 | alu_result=0x0000000a | MemRW=0 | RegWrite=0 | MemOut=0x00000000
==== Simulation Ended ====
$finish called at time : 1 us : File "C:/Users/yashw/RISC-V_PROJECT.srcs/sim_1/new/top_tb.sv" Line 62
